{
  "Become a Fedora contributor": "Become a Fedora contributor",
  "Both the Fedora Community Blog and Fedora Magazine are always [looking for article proposals, writers, and editors](https://docs.fedoraproject.org/en-US/fedora-magazine/contributing/). ": "Both the Fedora Community Blog and Fedora Magazine are always [looking for article proposals, writers, and editors](https://docs.fedoraproject.org/en-US/fedora-magazine/contributing/). ",
  "Chat": "Chat",
  "Chat Now": "Chat Now",
  "Communication channels": "Communication channels",
  "Community": "Community",
  "Description": "Description",
  "Developers": "Developers",
  "Fedora Community Blog": "Fedora Community Blog",
  "Fedora Magazine": "Fedora Magazine",
  "Fedora Magazine is a website that hosts promotional articles and short guides contributed from the community about free/libre and open-source software that runs on or works with the Fedora Linux operating system.": "Fedora Magazine is a website that hosts promotional articles and short guides contributed from the community about free/libre and open-source software that runs on or works with the Fedora Linux operating system.",
  "Fedora Onyx is maintained by the [Budgie Special Interest Group (SIG)](https://fedoraproject.org/wiki/SIGs/Budgie) in Fedora and is the result of collaboration between the Fedora and Budgie community. <br /><br /> The Budgie SIG is an open community seeking contributors from everywhere, and of every type. From documentation writing, to beta testing, to helping others by answering questions, there are plenty of ways to get involved and help shape the future of Onyx! <br /><br /> The Buddies of Budgie organization is responsible for the developmeng of Budgie Desktop and have their own [Getting Involved](https://docs.buddiesofbudgie.org/organization/getting-involved) page detailing how you can get help their project!": "Fedora Onyx is maintained by the [Budgie Special Interest Group (SIG)](https://fedoraproject.org/wiki/SIGs/Budgie) in Fedora and is the result of collaboration between the Fedora and Budgie community. <br /><br /> The Budgie SIG is an open community seeking contributors from everywhere, and of every type. From documentation writing, to beta testing, to helping others by answering questions, there are plenty of ways to get involved and help shape the future of Onyx! <br /><br /> The Buddies of Budgie organization is responsible for the developmeng of Budgie Desktop and have their own [Getting Involved](https://docs.buddiesofbudgie.org/organization/getting-involved) page detailing how you can get help their project!",
  "Fedora Onyx is powered by some amazing open-source projects, including [ostree](https://github.com/ostreedev/ostree), [rpm-ostree](https://github.com/coreos/rpm-ostree), and [flatpak](https://github.com/flatpak/flatpak). If you are a developer, consider helping out with one of these projects.": "Fedora Onyx is powered by some amazing open-source projects, including [ostree](https://github.com/ostreedev/ostree), [rpm-ostree](https://github.com/coreos/rpm-ostree), and [flatpak](https://github.com/flatpak/flatpak). If you are a developer, consider helping out with one of these projects.",
  "Fedora Publications": "Fedora Publications",
  "Forum": "Forum",
  "Found something that isn't quite right? Want to propose a change to the way Onyx works? We want to hear from you! Head over to the [Budgie SIG issue tracker](https://pagure.io/fedora-budgie/project/issues) and let us know.": "Found something that isn't quite right? Want to propose a change to the way Onyx works? We want to hear from you! Head over to the [Budgie SIG issue tracker](https://pagure.io/fedora-budgie/project/issues) and let us know.",
  "Join a community of users and contributors focused on Fedora Onyx.": "Join a community of users and contributors focused on Fedora Onyx.",
  "Testers": "Testers",
  "The **Fedora Onyx** tag on Fedora's Discourse-based discussion forum is a great place to connect with other Fedora Onyx users and contributors.": "The **Fedora Onyx** tag on Fedora's Discourse-based discussion forum is a great place to connect with other Fedora Onyx users and contributors.",
  "The Community Blog provides a single source for members of the community to share important news, updates, and information about Fedora with others in the Project community.": "The Community Blog provides a single source for members of the community to share important news, updates, and information about Fedora with others in the Project community.",
  "Visit Now": "Visit Now",
  "Visit now": "Visit now",
  "Ways to get involved": "Ways to get involved",
  "You can chat with the Fedora Budgie community on Matrix at **#budgie:fedoraproject.org**": "You can chat with the Fedora Budgie community on Matrix at **#budgie:fedoraproject.org**"
}