{
  "A beautiful, high-quality desktop, built on the latest open source technology.": "A beautiful, high-quality desktop, built on the latest open source technology.",
  "A previous version of your system is always kept around, just in case. If you need to go back in time, you can!": "A previous version of your system is always kept around, just in case. If you need to go back in time, you can!",
  "An atomic desktop operating system featuring the keyboard-driven Sway window manager.": "An atomic desktop operating system featuring the keyboard-driven Sway window manager.",
  "An atomic desktop operating system featuring the modern and modular Plasma Desktop": "An atomic desktop operating system featuring the modern and modular Plasma Desktop",
  "An atomic variant looks, feels, and behaves just like a regular desktop operating system, but your updates are delivered as full images of a working system. This makes every installation identical to every other, and it will never change while in use. What's more, Silverblue will always keep an older version of the system around for you to boot back into, should you need to, allowing you to try new programs, desktops, or even complete version upgrades fearlessly! <br /><br /> The atomic design makes a Silverblue system more stable, less prone to bugs, and easier to test and develop. Applications are installed via Flatpak completely independent of the base system, and CLI tools can utilize the power of containerization with Toolbox. <br /><br/> Silverblue comes with the popular GNOME desktop and follows the standard 13 month release-cycle, making the experience very similar to that of Fedora Workstation.": "An atomic variant looks, feels, and behaves just like a regular desktop operating system, but your updates are delivered as full images of a working system. This makes every installation identical to every other, and it will never change while in use. What's more, Silverblue will always keep an older version of the system around for you to boot back into, should you need to, allowing you to try new programs, desktops, or even complete version upgrades fearlessly! <br /><br /> The atomic design makes a Silverblue system more stable, less prone to bugs, and easier to test and develop. Applications are installed via Flatpak completely independent of the base system, and CLI tools can utilize the power of containerization with Toolbox. <br /><br/> Silverblue comes with the popular GNOME desktop and follows the standard 13 month release-cycle, making the experience very similar to that of Fedora Workstation.",
  "Applications as Flatpaks": "Applications as Flatpaks",
  "Atomic": "Atomic",
  "Built On Top of the Best": "Built On Top of the Best",
  "Containerized": "Containerized",
  "Developer-Friendly": "Developer-Friendly",
  "Documentation": "Documentation",
  "Download Now": "Download Now",
  "Download thousands of open-source and proprietary, containerized applications thanks to Flatpak.": "Download thousands of open-source and proprietary, containerized applications thanks to Flatpak.",
  "Each version is updated for approximately 13 months, and each update takes effect on your next reboot, keeping your system consistent. You can even keep working while the updates are being applied!": "Each version is updated for approximately 13 months, and each update takes effect on your next reboot, keeping your system consistent. You can even keep working while the updates are being applied!",
  "Easily create OCI containers which are fully-integrated with your host system, enabling seamless usage of both GUI and CLI tools.": "Easily create OCI containers which are fully-integrated with your host system, enabling seamless usage of both GUI and CLI tools.",
  "Fedora Community & Support": "Fedora Community & Support",
  "Fedora CoreOS is an automatically updating, minimal, monolithic, container-focused operating system, designed for clusters but also operable standalone, optimized for Kubernetes but also great without it.": "Fedora CoreOS is an automatically updating, minimal, monolithic, container-focused operating system, designed for clusters but also operable standalone, optimized for Kubernetes but also great without it.",
  "Fedora Silverblue": "Fedora Silverblue",
  "Fedora Silverblue Image": "Fedora Silverblue Image",
  "Fedora creates an innovative, free and open source platform for hardware, clouds, and containers that enables software developers and community members to build tailored solutions for their users.": "Fedora creates an innovative, free and open source platform for hardware, clouds, and containers that enables software developers and community members to build tailored solutions for their users.",
  "GNOME Desktop": "GNOME Desktop",
  "Graphical applications are installed via Flatpak, and keep themselves separate from the base system. They also allow for fine-grained control over their permissions.": "Graphical applications are installed via Flatpak, and keep themselves separate from the base system. They also allow for fine-grained control over their permissions.",
  "Private, Trusted, Open Source": "Private, Trusted, Open Source",
  "Related Projects": "Related Projects",
  "Reliable": "Reliable",
  "Safe": "Safe",
  "Screenshot of Fedora Silverblue": "Screenshot of Fedora Silverblue",
  "The GNOME desktop experience you know and love in an atomic fashion.": "The GNOME desktop experience you know and love in an atomic fashion.",
  "The whole system is updated in one go, and an update will not apply if anything goes wrong, meaning you will <i>always</i> have a working computer.": "The whole system is updated in one go, and an update will not apply if anything goes wrong, meaning you will <i>always</i> have a working computer.",
  "There are no ads, and all your data belongs to you! Fedora is built on the latest open source technologies, and backed by Red Hat.": "There are no ads, and all your data belongs to you! Fedora is built on the latest open source technologies, and backed by Red Hat.",
  "Toolbx for Development": "Toolbx for Development",
  "Toolbx keeps all of your development tools neatly organized per-project. Keep multiple versions of your tools independent from each other and unaffected by changes to the base system.": "Toolbx keeps all of your development tools neatly organized per-project. Keep multiple versions of your tools independent from each other and unaffected by changes to the base system.",
  "Why Fedora Silverblue?": "Why Fedora Silverblue?",
  "rpm-ostree is a hybrid image/package system. It combines libostree and libdnf to provide atomic and safe upgrades with local RPM package layering.": "rpm-ostree is a hybrid image/package system. It combines libostree and libdnf to provide atomic and safe upgrades with local RPM package layering."
}