{
  "A simple music player that should be easy to use. It does not require any configuration before one can use it.": "A simple music player that should be easy to use. It does not require any configuration before one can use it.",
  "Built on the foundations of KDE Plasma Desktop, the Fedora KDE Plasma Mobile Spin brings its flexibility to a mobile form factor. Although originally geared towards phones, the touch friendly interface works very well on tablets and 2-in-1 laptops. ": "Built on the foundations of KDE Plasma Desktop, the Fedora KDE Plasma Mobile Spin brings its flexibility to a mobile form factor. Although originally geared towards phones, the touch friendly interface works very well on tablets and 2-in-1 laptops. ",
  "Download Now": "Download Now",
  "Fedora KDE Plasma Mobile Image": "Fedora KDE Plasma Mobile Image",
  "Fedora KDE Plasma Mobile Spin": "Fedora KDE Plasma Mobile Spin",
  "Going Online": "Going Online",
  "Haruna": "Haruna",
  "Haruna is an open source media player built with Qt/QML and libmpv. It does video preview on seek, play online videos, and more.": "Haruna is an open source media player built with Qt/QML and libmpv. It does video preview on seek, play online videos, and more.",
  "Index": "Index",
  "Index is a file manager that works on desktops, Android and Plasma Mobile. Index lets you browse your system files and applications and preview your music, text, image and video files and share them with external applications.": "Index is a file manager that works on desktops, Android and Plasma Mobile. Index lets you browse your system files and applications and preview your music, text, image and video files and share them with external applications.",
  "Multimedia": "Multimedia",
  "NeoChat": "NeoChat",
  "NeoChat is a client for Matrix based on KDE frameworks. NeoChat aims to be a fully featured application for the Matrix specification.": "NeoChat is a client for Matrix based on KDE frameworks. NeoChat aims to be a fully featured application for the Matrix specification.",
  "Okular Mobile": "Okular Mobile",
  "Okular is a universal document viewer that combines the excellent functionalities with the versatility of supporting different kind of documents, like PDF, Postscript, DjVu, CHM, XPS, ePub and others.": "Okular is a universal document viewer that combines the excellent functionalities with the versatility of supporting different kind of documents, like PDF, Postscript, DjVu, CHM, XPS, ePub and others.",
  "Screenshot of Fedora KDE Plasma Mobile desktop": "Screenshot of Fedora KDE Plasma Mobile desktop",
  "The popular and free web browser backed by Mozilla, a non-profit dedicated to internet health and privacy.": "The popular and free web browser backed by Mozilla, a non-profit dedicated to internet health and privacy.",
  "Upstream Documentation": "Upstream Documentation",
  "Utilities": "Utilities",
  "We're so glad you've decided to give Fedora KDE Plasma Mobile Spin a try. We know you'll love it.": "We're so glad you've decided to give Fedora KDE Plasma Mobile Spin a try. We know you'll love it."
}